process0 7 7
process1 15 14
process2 22 20
process3 25 22
process4 31 27
process5 33 28
process6 36 29
process7 43 36
process8 49 41
process9 51 42
process10 59 49
process11 64 53
process12 71 59
process13 73 59
process14 74 59
process15 81 65
process16 90 74
process17 100 83
process18 103 85
process19 105 85
process20 113 93
process21 117 96
process22 126 104
process23 128 105
process24 134 110
process25 141 116
process26 147 120
process27 149 122
process28 152 124
process29 156 126
process30 158 128
process31 165 133
process32 169 137
process33 172 138
process34 176 142
process35 180 144
process36 182 145
process37 187 150
process38 194 155
process39 200 160
process40 201 161
process41 205 163
process42 214 172
process43 224 181
process44 226 181
process45 232 187
process46 239 193
process47 249 202
process48 259 211
process49 265 216
process50 274 224
process51 280 229
process52 285 233
process53 286 233
process54 293 238
process55 297 242
process56 302 245
process57 303 245
process58 313 254
process59 323 263
process60 325 265
process61 331 270
process62 332 270
process63 333 270
process64 343 279
process65 344 279
process66 353 287
process67 360 292
process68 361 293
process69 370 301
process70 375 304
process71 377 306
process72 382 310
process73 384 311
process74 389 314
process75 395 320
process76 403 327
process77 404 327
process78 408 330
process79 416 337
process80 426 345
process81 433 351
process82 438 356
process83 440 357
process84 446 362
process85 453 367
process86 458 372
process87 468 381
process88 469 381
process89 476 387
process90 477 387
process91 482 391
process92 487 394
process93 488 395
process94 494 400
process95 501 406
process96 510 414
process97 518 421
process98 521 423
process99 528 429
process100 536 436
process101 540 439
process102 542 440
process103 552 448
process104 554 450
process105 564 458
process106 566 460
process107 571 464
process108 581 473
process109 585 475
process110 588 477
process111 596 485
process112 599 487
process113 607 494
process114 617 502
process115 627 512
process116 628 512
process117 638 520
process118 648 529
process119 657 538
process120 664 543
process121 669 547
process122 670 548
process123 678 555
process124 686 562
process125 695 569
process126 699 573
process127 703 575
process128 711 582
process129 717 588
process130 725 595
process131 734 602
process132 740 608
process133 750 617
process134 752 617
process135 757 622
process136 763 627
process137 773 636
process138 781 643
process139 787 647
process140 788 648
process141 791 649
process142 795 653
process143 797 653
process144 801 656
process145 803 658
process146 805 658
process147 811 664
process148 817 668
process149 826 677
process150 830 679
process151 837 686
process152 841 688
process153 848 695
process154 849 695
process155 859 703
process156 868 712
process157 869 711
process158 873 714
process159 874 715
process160 876 715
process161 880 718
process162 884 722
process163 885 721
process164 890 725
process165 896 731
process166 898 732
process167 902 734
process168 906 738
process169 909 739
process170 912 741
process171 918 746
process172 924 752
process173 931 757
process174 932 758
process175 937 762
process176 938 761
process177 940 762
process178 942 764
process179 944 764
process180 952 771
process181 958 777
process182 960 778
process183 962 778
process184 965 780
process185 970 785
process186 972 786
process187 980 792
process188 988 799
process189 993 804
process190 994 804
process191 1002 811
process192 1012 820
process193 1022 829
process194 1023 828
process195 1030 835
process196 1034 838
process197 1037 840
process198 1046 847
process199 1052 853
process200 1058 858
process201 1064 863
process202 1073 871
process203 1075 872
process204 1078 874
process205 1080 874
process206 1084 878
process207 1088 881
process208 1093 884
process209 1100 891
process210 1110 900
process211 1117 905
process212 1126 914
process213 1128 915
process214 1135 921
process215 1144 928
process216 1145 929
process217 1153 936
process218 1161 942
process219 1169 949
process220 1176 955
process221 1178 957
process222 1182 960
process223 1185 962
process224 1193 968
process225 1195 970
process226 1205 978
process227 1214 986
process228 1223 994
process229 1233 1004
process230 1240 1009
process231 1248 1017
process232 1249 1016
process233 1253 1020
process234 1255 1021
process235 1261 1025
process236 1263 1026
process237 1264 1027
process238 1274 1036
process239 1278 1039
process240 1287 1047
process241 1294 1052
process242 1296 1054
process243 1304 1060
process244 1307 1062
process245 1314 1068
process246 1323 1076
process247 1332 1084
process248 1337 1089
process249 1347 1097
process250 1354 1103
process251 1362 1111
process252 1366 1113
process253 1367 1113
process254 1377 1123
process255 1379 1124
process256 1389 1133
process257 1391 1133
process258 1398 1140
process259 1405 1146
process260 1412 1151
process261 1420 1159
process262 1429 1167
process263 1430 1167
process264 1436 1172
process265 1443 1178
process266 1452 1185
process267 1457 1190
process268 1464 1195
process269 1468 1199
process270 1469 1199
process271 1477 1205
process272 1478 1206
process273 1488 1214
process274 1494 1219
process275 1504 1228
process276 1512 1236
process277 1513 1236
process278 1519 1241
process279 1521 1242
process280 1525 1245
process281 1529 1248
process282 1539 1257
process283 1543 1260
process284 1549 1264
process285 1559 1274
process286 1563 1277
process287 1567 1279
process288 1575 1287
process289 1581 1291
process290 1585 1295
process291 1594 1303
process292 1603 1311
process293 1609 1316
process294 1617 1322
process295 1621 1326
process296 1629 1333
process297 1639 1341
process298 1643 1345
process299 1651 1351
299
