process0 7 7
process1 15 14
process2 22 20
process3 25 22
process4 31 27
process5 33 28
process6 36 29
process7 43 36
process8 49 41
process9 51 42
process10 59 49
process11 64 53
process12 71 59
process13 73 59
process14 74 59
process15 81 65
process16 90 74
process17 100 83
process18 103 85
process19 105 85
process20 113 93
process21 117 96
process22 126 104
process23 128 105
process24 134 110
process25 141 116
process26 147 120
process27 149 122
process28 152 124
process29 156 126
process30 158 128
process31 165 133
process32 169 137
process33 172 138
process34 176 142
process35 180 144
process36 182 145
process37 187 150
process38 194 155
process39 200 160
process40 201 161
process41 205 163
process42 214 172
process43 224 181
process44 226 181
process45 232 187
process46 239 193
process47 249 202
process48 259 211
process49 265 216
process50 274 224
process51 280 229
process52 285 233
process53 286 233
process54 293 238
process55 297 242
process56 302 245
process57 303 245
process58 313 254
process59 323 263
process60 325 265
process61 331 270
process62 332 270
process63 333 270
process64 343 279
process65 344 279
process66 353 287
process67 360 292
process68 361 293
process69 370 301
process70 375 304
process71 377 306
process72 382 310
process73 384 311
process74 389 314
process75 395 320
process76 403 327
process77 404 327
process78 408 330
process79 416 337
process80 426 345
process81 433 351
process82 438 356
process83 440 357
process84 446 362
process85 453 367
process86 458 372
process87 468 381
process88 469 381
process89 476 387
process90 477 387
process91 482 391
process92 487 394
process93 488 395
process94 494 400
process95 501 406
process96 510 414
process97 518 421
process98 521 423
process99 528 429
process100 536 436
process101 540 439
process102 542 440
process103 552 448
process104 554 450
process105 564 458
process106 566 460
process107 571 464
process108 581 473
process109 585 475
process110 588 477
process111 596 485
process112 599 487
process113 607 494
process114 617 502
process115 627 512
process116 628 512
process117 638 520
process118 648 529
process119 657 538
process120 664 543
process121 669 547
process122 670 548
process123 678 555
process124 686 562
process125 695 569
process126 699 573
process127 703 575
process128 711 582
process129 718 589
process130 726 596
process131 735 603
process132 741 609
process133 751 618
process134 753 618
process135 758 623
process136 764 628
process137 774 637
process138 782 644
process139 788 648
process140 789 649
process141 792 650
process142 796 654
process143 798 654
process144 802 657
process145 804 659
process146 806 659
process147 812 665
process148 818 669
process149 827 678
process150 831 680
process151 838 687
process152 842 689
process153 849 696
process154 850 696
process155 860 704
process156 869 713
process157 870 712
process158 874 715
process159 875 716
process160 877 716
process161 881 719
process162 885 723
process163 886 722
process164 891 726
process165 897 732
process166 899 733
process167 903 735
process168 907 739
process169 910 740
process170 913 742
process171 919 747
process172 925 753
process173 932 758
process174 933 759
process175 938 763
process176 939 762
process177 941 763
process178 943 765
process179 945 765
process180 953 772
process181 959 778
process182 961 779
process183 963 779
process184 966 781
process185 971 786
process186 973 787
process187 981 793
process188 989 800
process189 994 805
process190 995 805
process191 1003 812
process192 1013 821
process193 1023 830
process194 1024 829
process195 1031 836
process196 1035 839
process197 1038 841
process198 1047 848
process199 1053 854
process200 1059 859
process201 1065 864
process202 1074 872
process203 1076 873
process204 1079 875
process205 1081 875
process206 1085 879
process207 1089 882
process208 1094 885
process209 1101 892
process210 1111 901
process211 1118 906
process212 1127 915
process213 1129 916
process214 1136 922
process215 1145 929
process216 1146 930
process217 1154 937
process218 1162 943
process219 1170 950
process220 1177 956
process221 1179 958
process222 1183 961
process223 1186 963
process224 1194 969
process225 1196 971
process226 1206 979
process227 1215 987
process228 1224 995
process229 1234 1005
process230 1241 1010
process231 1249 1018
process232 1250 1017
process233 1254 1021
process234 1256 1022
process235 1262 1026
process236 1264 1027
process237 1265 1028
process238 1275 1037
process239 1279 1040
process240 1288 1048
process241 1295 1053
process242 1297 1055
process243 1305 1061
process244 1308 1063
process245 1315 1069
process246 1324 1077
process247 1333 1085
process248 1338 1090
process249 1348 1098
process250 1355 1104
process251 1363 1112
process252 1367 1114
process253 1368 1114
process254 1378 1124
process255 1380 1125
process256 1390 1134
process257 1392 1134
process258 1399 1141
process259 1406 1147
process260 1413 1152
process261 1421 1160
process262 1430 1168
process263 1431 1168
process264 1437 1173
process265 1444 1179
process266 1453 1186
process267 1458 1191
process268 1465 1196
process269 1469 1200
process270 1470 1200
process271 1478 1206
process272 1479 1207
process273 1489 1215
process274 1495 1220
process275 1505 1229
process276 1513 1237
process277 1514 1237
process278 1520 1242
process279 1522 1243
process280 1526 1246
process281 1530 1249
process282 1540 1258
process283 1544 1261
process284 1550 1265
process285 1559 1274
process286 1563 1277
process287 1567 1279
process288 1575 1287
process289 1581 1291
process290 1585 1295
process291 1594 1303
process292 1603 1311
process293 1609 1316
process294 1617 1322
process295 1621 1326
process296 1629 1333
process297 1639 1341
process298 1643 1345
process299 1651 1351
299
