process5 21 16
process3 25 22
process14 29 14
process9 37 28
process6 50 43
process13 53 39
process19 74 54
process40 76 36
process23 87 64
process27 100 73
process53 101 48
process30 108 78
process57 109 51
process0 110 110
process62 118 56
process63 120 57
process65 124 59
process68 130 62
process18 133 115
process36 134 97
process77 146 69
process44 162 117
process88 167 79
process90 171 81
process93 177 84
process28 194 166
process60 214 154
process116 218 102
process122 228 106
process33 231 197
process4 239 235
process71 253 182
process2 258 256
process140 260 120
process73 261 188
process154 287 133
process21 288 267
process157 294 136
process83 295 212
process159 297 138
process11 301 290
process163 305 141
process1 317 316
process174 324 150
process176 329 152
process190 355 165
process102 362 260
process194 363 168
process104 369 265
process106 377 271
process29 379 349
process216 405 189
process32 412 380
process8 424 416
process232 435 202
process34 437 403
process237 444 207
process35 457 421
process134 467 332
process253 475 221
process263 491 228
process143 500 356
process270 505 235
process145 506 361
process272 509 237
process146 510 363
process277 519 242
process41 530 488
process160 560 399
process166 568 402
process177 585 407
process178 586 408
process179 589 409
process182 594 412
process183 597 413
process186 602 416
process98 604 506
process55 621 566
process7 624 617
process203 629 426
process205 634 428
process110 638 527
process112 644 532
process213 649 436
process221 661 440
process225 669 444
process234 682 448
process236 687 450
process242 696 454
process255 718 463
process37 719 682
process257 723 465
process141 731 589
process78 749 671
process279 756 477
process169 804 634
process170 805 634
process24 811 787
process12 815 803
process184 824 639
process26 829 802
process52 833 781
process101 837 736
process197 843 646
process204 851 647
process56 852 795
process109 855 745
process15 862 846
process223 880 657
process126 897 771
process127 902 774
process244 911 666
process70 924 853
process72 931 859
process142 940 798
process74 942 867
process39 946 906
process144 949 804
process10 961 951
process150 964 813
process152 970 817
process82 985 903
process158 991 832
process161 997 835
process162 998 836
process86 1000 914
process45 1003 958
process167 1005 837
process168 1006 838
process91 1012 921
process92 1016 923
process49 1018 969
process25 1022 997
process51 1027 976
process196 1038 842
process107 1046 939
process206 1048 842
process207 1049 842
process31 1064 1032
process61 1066 1005
process222 1070 848
process121 1077 955
process233 1086 853
process239 1092 853
process135 1109 974
process252 1113 860
process38 1124 1085
process75 1127 1052
process269 1131 862
process20 1136 1116
process280 1144 864
process281 1145 864
process283 1148 865
process286 1153 867
process287 1155 867
process290 1159 869
process295 1167 872
process298 1170 872
process84 1172 1088
process164 1175 1010
process46 1178 1132
process175 1184 1009
process94 1186 1092
process185 1192 1007
process189 1196 1007
process54 1203 1148
process208 1213 1004
process16 1232 1216
process129 1251 1122
process67 1253 1185
process132 1258 1126
process248 1262 1014
process136 1267 1131
process139 1274 1134
process267 1281 1014
process147 1285 1138
process148 1290 1141
process81 1302 1220
process22 1313 1291
process85 1315 1229
process165 1316 1151
process89 1318 1229
process171 1319 1147
process172 1320 1148
process181 1325 1144
process95 1326 1231
process99 1332 1233
process199 1340 1141
process200 1341 1141
process201 1343 1142
process120 1366 1245
process235 1377 1141
process17 1379 1362
process264 1404 1140
process76 1408 1332
process274 1411 1136
process278 1415 1137
process79 1416 1337
process151 1417 1266
process42 1419 1377
process284 1420 1135
process153 1422 1269
process289 1425 1135
process293 1430 1137
process173 1438 1264
process50 1442 1392
process97 1443 1346
process100 1447 1347
process195 1450 1255
process111 1456 1345
process209 1457 1248
process211 1460 1248
process113 1462 1349
process214 1464 1250
process220 1471 1250
process123 1481 1358
process230 1482 1251
process124 1484 1360
process66 1486 1420
process128 1489 1360
process241 1490 1248
process130 1491 1361
process245 1494 1248
process69 1496 1427
process250 1500 1249
process138 1505 1367
process258 1506 1248
process259 1507 1248
process260 1508 1247
process265 1511 1246
process268 1513 1244
process43 1527 1484
process47 1533 1486
process48 1534 1486
process180 1535 1354
process96 1536 1440
process187 1537 1349
process188 1538 1349
process191 1539 1348
process58 1547 1488
process59 1550 1490
process217 1554 1337
process218 1555 1336
process219 1556 1336
process119 1559 1440
process224 1560 1335
process64 1565 1501
process231 1566 1335
process125 1567 1441
process243 1570 1326
process131 1571 1439
process251 1576 1325
process261 1580 1319
process271 1583 1311
process276 1586 1310
process149 1587 1438
process80 1590 1509
process288 1591 1303
process156 1594 1438
process294 1596 1301
process296 1597 1301
process299 1599 1299
process87 1600 1513
process103 1603 1499
process198 1604 1405
process105 1605 1499
process202 1606 1404
process108 1607 1499
process212 1609 1397
process114 1610 1495
process215 1611 1395
process115 1612 1497
process117 1613 1495
process118 1614 1495
process227 1616 1388
process228 1617 1388
process240 1620 1380
process246 1621 1374
process247 1622 1374
process133 1623 1490
process137 1626 1489
process262 1628 1366
process266 1629 1362
process285 1633 1348
process155 1634 1478
process291 1635 1344
process292 1636 1344
process192 1638 1446
process193 1639 1446
process210 1640 1430
process226 1641 1414
process229 1642 1413
process238 1643 1405
process249 1644 1394
process254 1645 1391
process256 1646 1390
process273 1647 1373
process275 1648 1372
process282 1649 1367
process297 1650 1352
1649
