process5 21 16
process3 25 22
process14 29 14
process9 37 28
process6 50 43
process13 53 39
process19 74 54
process40 76 36
process23 87 64
process27 100 73
process53 101 48
process30 108 78
process57 109 51
process0 110 110
process62 118 56
process63 120 57
process65 124 59
process68 130 62
process18 133 115
process36 134 97
process77 146 69
process44 162 117
process88 167 79
process90 171 81
process93 177 84
process28 191 163
process60 200 140
process33 207 173
process4 211 207
process71 216 145
process2 219 217
process73 220 147
process21 233 212
process83 237 154
process11 240 229
process1 247 246
process29 269 239
process32 276 244
process8 278 270
process34 280 246
process35 284 248
process41 298 256
process98 326 228
process55 331 276
process7 332 325
process15 335 319
process37 346 309
process74 349 274
process78 354 276
process24 372 348
process92 374 281
process12 375 363
process25 379 354
process26 385 358
process52 387 335
process56 389 332
process31 392 360
process70 400 329
process72 401 329
process39 404 364
process10 407 397
process82 412 330
process86 417 331
process45 418 373
process91 423 332
process49 426 377
process51 431 380
process54 433 378
process61 437 376
process38 444 405
process75 445 370
process20 447 427
process84 454 370
process85 455 369
process46 458 412
process94 462 368
process95 463 368
process16 470 454
process67 474 406
process76 476 400
process81 480 398
process22 482 460
process89 484 395
process50 488 438
process99 491 392
process17 496 479
process79 498 419
process42 499 457
process96 505 409
process97 506 409
process64 509 445
process66 510 444
process69 511 442
process43 513 470
process87 514 427
process47 515 468
process48 516 468
process58 517 458
process59 518 458
process80 519 438
514
