process5 21 16
process3 25 22
process13 27 13
process14 30 15
process9 38 29
process6 51 44
process4 68 64
process40 75 35
process19 76 56
process23 88 65
process53 100 47
process27 101 74
process30 108 78
process57 109 51
process0 110 110
process62 118 56
process63 120 57
process65 124 59
process68 130 62
process36 132 95
process18 136 118
process77 145 68
process44 160 115
process88 167 79
process90 170 80
process93 176 83
process28 190 162
process60 199 139
process33 204 170
process71 215 144
process73 218 145
process2 219 217
process21 234 213
process83 235 152
process11 241 230
process1 246 245
process55 265 210
process7 267 260
process29 268 238
process32 273 241
process34 278 244
process8 279 271
process35 282 246
process41 295 253
process86 307 221
process98 325 227
process26 328 301
process15 335 319
process37 343 306
process74 348 273
process78 352 274
process24 370 346
process92 371 278
process12 374 362
process25 378 353
process52 382 330
process56 385 328
process70 396 325
process72 397 325
process39 399 359
process10 405 395
process82 409 327
process45 412 367
process91 418 327
process49 420 371
process51 426 375
process31 430 398
process61 432 371
process38 439 400
process75 440 365
process20 442 422
process84 449 365
process46 452 406
process89 453 364
process94 456 362
process54 462 407
process16 465 449
process67 469 401
process76 471 395
process81 477 395
process22 478 456
process85 479 393
process95 483 388
process50 484 434
process99 487 388
process66 491 425
process17 492 475
process69 493 424
process79 494 415
process42 495 453
process96 501 405
process97 502 405
process59 504 444
process43 508 465
process47 510 463
process48 511 463
process58 512 453
process64 513 449
process80 514 433
process87 515 428
508
