process5 21 16
process3 25 22
process14 29 14
process9 37 28
process6 50 43
process13 53 39
process19 74 54
process40 76 36
process23 87 64
process27 100 73
process53 101 48
process30 108 78
process57 109 51
process0 110 110
process62 118 56
process63 120 57
process65 124 59
process68 130 62
process18 133 115
process36 134 97
process77 146 69
process44 162 117
process88 167 79
process90 171 81
process93 177 84
process28 191 163
process60 200 140
process33 207 173
process4 211 207
process71 216 145
process2 219 217
process73 220 147
process41 230 188
process21 233 212
process83 237 154
process11 240 229
process1 247 246
process7 268 261
process29 269 239
process32 276 244
process8 278 270
process34 280 246
process35 284 248
process78 295 217
process24 314 290
process98 326 228
process55 331 276
process15 334 318
process37 346 309
process92 372 279
process12 373 361
process26 382 355
process52 384 332
process56 386 329
process31 389 357
process70 397 326
process72 398 326
process74 400 325
process39 402 362
process10 405 395
process82 410 328
process86 415 329
process45 416 371
process46 418 372
process91 421 330
process49 424 375
process25 426 401
process51 430 379
process61 435 374
process38 442 403
process75 443 368
process20 445 425
process84 452 368
process85 453 367
process89 455 366
process94 458 364
process50 461 411
process54 464 409
process16 467 451
process17 470 453
process67 471 403
process42 475 433
process81 477 395
process22 479 457
process95 483 388
process99 486 387
process66 490 424
process76 492 416
process79 493 414
process47 497 450
process97 500 403
process59 502 442
process64 503 439
process69 504 435
process43 506 463
process48 508 460
process96 509 413
process58 510 451
process80 511 430
process87 512 425
509
