process5 21 16
process3 25 22
process14 29 14
process9 37 28
process19 39 19
process6 51 44
process13 54 40
process40 76 36
process23 88 65
process53 100 47
process27 101 74
process57 108 50
process30 109 79
process0 111 111
process62 117 55
process63 119 56
process65 123 58
process68 129 61
process18 133 115
process36 136 99
process77 146 69
process83 158 75
process44 162 117
process88 169 81
process90 172 82
process93 178 85
process28 194 166
process60 200 140
process8 207 199
process33 209 175
process4 214 210
process71 218 147
process73 221 148
process2 222 220
process21 238 217
process11 244 233
process1 249 248
process7 269 262
process29 271 241
process32 277 245
process34 281 247
process35 285 249
process41 296 254
process12 319 307
process98 327 229
process26 330 303
process55 332 277
process72 346 274
process37 347 310
process39 351 311
process78 354 276
process24 373 349
process52 383 331
process56 386 329
process15 389 373
process70 398 327
process74 400 325
process10 406 396
process82 410 328
process45 413 368
process86 415 329
process46 417 371
process91 420 329
process92 422 329
process49 423 374
process25 428 403
process51 430 379
process61 435 374
process31 436 404
process67 441 373
process38 443 404
process75 444 369
process20 446 426
process42 448 406
process84 453 369
process94 459 365
process54 465 410
process16 468 452
process17 471 454
process81 478 396
process22 479 457
process85 480 394
process89 482 393
process95 485 390
process50 486 436
process99 489 390
process76 495 419
process79 496 417
process80 497 416
process97 503 406
process64 506 442
process66 507 441
process69 508 439
process43 509 466
process47 511 464
process48 512 464
process96 513 417
process58 514 455
process59 515 455
process87 516 429
510
