process5 21 16
process3 25 22
process14 29 14
process9 37 28
process6 50 43
process13 53 39
process19 74 54
process40 76 36
process23 87 64
process27 100 73
process53 101 48
process30 108 78
process57 109 51
process0 110 110
process60 114 54
process62 119 57
process63 121 58
process65 125 60
process68 131 63
process18 134 116
process36 135 98
process77 147 70
process44 163 118
process88 168 80
process90 172 82
process93 178 85
process28 192 164
process29 196 166
process33 207 173
process4 211 207
process71 216 145
process2 219 217
process73 220 147
process21 233 212
process83 237 154
process11 240 229
process1 247 246
process55 267 212
process32 275 243
process8 277 269
process34 279 245
process35 283 247
process41 297 255
process98 325 227
process7 330 323
process37 344 307
process78 352 274
process24 370 346
process12 373 361
process26 382 355
process52 384 332
process56 386 329
process15 388 372
process61 391 330
process70 399 328
process72 400 328
process74 402 327
process39 404 364
process20 406 386
process10 408 398
process82 413 331
process86 418 332
process45 419 374
process91 424 333
process92 426 333
process49 428 379
process25 430 405
process51 434 383
process31 439 407
process67 444 376
process38 446 407
process75 447 372
process22 454 432
process84 455 371
process46 458 412
process89 459 370
process94 462 368
process97 466 369
process54 468 413
process16 471 455
process76 476 400
process81 480 398
process85 482 396
process95 486 391
process99 489 390
process59 491 431
process17 494 477
process69 495 426
process79 496 417
process42 497 455
process47 501 454
process48 503 455
process50 505 455
process66 508 442
process43 510 467
process96 512 416
process58 513 454
process64 514 450
process80 515 434
process87 516 429
511
