process5 21 16
process3 25 22
process14 29 14
process9 37 28
process6 50 43
process13 53 39
process0 58 58
process19 74 54
process40 76 36
process23 87 64
process27 100 73
process53 101 48
process30 108 78
process57 109 51
process62 117 55
process63 119 56
process65 123 58
process68 129 61
process18 132 114
process36 133 96
process2 138 136
process77 146 69
process44 162 117
process88 167 79
process90 171 81
process93 177 84
process28 191 163
process29 195 165
process60 200 140
process33 207 173
process4 211 207
process71 216 145
process73 219 146
process21 232 211
process83 236 153
process11 239 228
process1 246 245
process32 274 242
process8 276 268
process34 278 244
process35 282 246
process41 296 254
process25 319 294
process98 325 227
process55 330 275
process7 331 324
process37 345 308
process78 353 275
process24 371 347
process12 374 362
process26 382 355
process52 384 332
process56 386 329
process15 388 372
process61 391 330
process67 396 328
process70 399 328
process72 400 328
process74 402 327
process39 404 364
process10 407 397
process82 412 330
process86 417 331
process45 418 373
process46 420 374
process91 424 333
process92 426 333
process49 428 379
process51 433 382
process54 435 380
process31 439 407
process38 445 406
process75 446 371
process20 448 428
process84 455 371
process89 458 369
process94 461 367
process16 469 453
process81 478 396
process22 480 458
process85 481 395
process95 485 390
process99 489 390
process17 494 477
process76 496 420
process79 497 418
process42 498 456
process48 503 455
process96 504 408
process50 505 455
process97 506 409
process59 508 448
process66 510 444
process69 511 442
process43 513 470
process87 514 427
process47 515 468
process58 516 457
process64 517 453
process80 518 437
512
