process0 0 7 9
process1 1 8 26
process2 2 7 10
process3 3 3 26
process4 4 6 25
process5 5 2 15
process6 7 3 18
process7 7 7 18
process8 8 6 34
process9 9 2 30
process10 10 8 25
process11 11 5 20
process12 12 7 29
process13 14 2 18
process14 15 1 23
process15 16 7 43
process16 16 9 38
process17 17 10 46
process18 18 3 37
process19 20 2 39
process20 20 8 44
process21 21 4 36
process22 22 9 48
process23 23 2 35
process24 24 6 32
process25 25 7 40
process26 27 6 42
process27 27 2 49
process28 28 3 35
process29 30 4 42
process30 30 2 37
process31 32 7 59
process32 32 4 54
process33 34 3 48
process34 34 4 57
process35 36 4 55
process36 37 2 51
process37 37 5 47
process38 39 7 64
process39 40 6 47
process40 40 1 45
process41 42 4 56
process42 42 9 65
process43 43 10 61
process44 45 2 60
process45 45 6 68
process46 46 7 63
process47 47 10 61
process48 48 10 60
process49 49 6 74
process50 50 9 71
process51 51 6 72
process52 52 5 61
process53 53 1 59
process54 55 7 79
process55 55 4 71
process56 57 5 72
process57 58 1 78
process58 59 10 79
process59 60 10 78
process60 60 2 68
process61 61 6 69
process62 62 1 81
process63 63 1 72
process64 64 10 80
process65 65 1 85
process66 66 9 80
process67 68 7 91
process68 68 1 76
process69 69 9 95
process70 71 5 84
process71 71 2 78
process72 72 5 94
process73 73 2 92
process74 75 5 88
process75 75 6 100
process76 76 8 93
process77 77 1 93
process78 78 4 100
process79 79 8 105
process80 81 10 93
process81 82 7 94
process82 82 5 96
process83 83 2 87
process84 84 6 98
process85 86 7 96
process86 86 5 101
process87 87 10 99
process88 88 1 106
process89 89 7 113
process90 90 1 107
process91 91 5 108
process92 93 5 116
process93 93 1 113
process94 94 6 106
process95 95 7 114
process96 96 9 114
process97 97 8 125
process98 98 3 121
process99 99 7 115
