process3 6 3
process5 8 3
process9 11 2
process6 13 6
process14 16 1
process13 17 3
process0 20 20
process19 22 2
process23 25 2
process18 27 9
process27 29 2
process30 32 2
process28 34 6
process33 37 3
process36 39 2
process40 41 1
process29 44 14
process44 47 2
process35 50 14
process53 54 1
process34 55 21
process57 59 1
process32 60 28
process60 62 2
process62 63 1
process63 64 1
process65 66 1
process68 69 1
process55 70 15
process71 73 2
process73 75 2
process77 78 1
process21 79 58
process41 83 41
process83 85 2
process88 89 1
process78 90 12
process90 91 1
process93 94 1
process11 97 86
process98 101 3
process72 105 33
process74 110 35
process70 115 44
process56 120 63
process52 125 73
process82 130 48
process91 135 44
process86 140 54
process37 145 108
process92 150 57
process24 156 132
process49 162 113
process8 168 160
process61 174 113
process26 180 153
process4 186 182
process75 192 117
process51 198 147
process39 204 164
process94 210 116
process84 216 132
process45 222 177
process2 229 227
process25 236 211
process31 243 211
process54 250 195
process95 257 162
process67 264 196
process89 271 182
process12 278 266
process85 285 199
process15 292 276
process81 299 217
process7 306 299
process46 313 267
process38 320 281
process99 327 228
process10 335 325
process97 343 246
process79 351 272
process1 359 358
process20 367 347
process76 375 299
process66 384 318
process96 393 297
process42 402 360
process69 411 342
process50 420 370
process22 429 407
process16 438 422
process87 448 361
process47 458 411
process58 468 409
process48 478 430
process64 488 424
process59 498 438
process80 508 427
process17 518 501
process43 528 485
116
