process5 21 16
process3 25 22
process14 29 14
process9 37 28
process6 50 43
process13 53 39
process19 74 54
process40 76 36
process23 87 64
process27 100 73
process53 101 48
process30 108 78
process57 109 51
process0 110 110
process62 118 56
process63 120 57
process65 124 59
process68 130 62
process18 133 115
process36 134 97
process77 146 69
process44 162 117
process88 167 79
process90 171 81
process93 177 84
process28 191 163
process60 200 140
process33 207 173
process4 211 207
process71 216 145
process2 219 217
process73 220 147
process21 233 212
process83 237 154
process11 240 229
process1 247 246
process29 269 239
process32 276 244
process8 278 270
process34 280 246
process35 284 248
process41 298 256
process98 326 228
process55 331 276
process7 332 325
process37 346 309
process78 354 276
process24 372 348
process12 375 363
process26 384 357
process52 386 334
process56 388 331
process15 390 374
process70 400 329
process72 401 329
process74 403 328
process39 405 365
process10 408 398
process82 413 331
process86 418 332
process45 419 374
process91 424 333
process92 426 333
process49 428 379
process25 430 405
process51 434 383
process31 439 407
process61 440 379
process38 447 408
process75 448 373
process20 450 430
process84 457 373
process46 460 414
process94 464 370
process54 470 415
process16 473 457
process67 477 409
process81 483 401
process22 485 463
process85 486 400
process89 488 399
process95 491 396
process99 495 396
process17 500 483
process76 502 426
process79 503 424
process42 504 462
process50 511 461
process97 512 415
process66 516 450
process69 517 448
process43 519 476
process47 521 474
process48 522 474
process96 523 427
process58 524 465
process59 525 465
process64 526 462
process80 527 446
process87 528 441
527
