process5 21 16
process3 25 22
process14 29 14
process9 37 28
process6 50 43
process13 53 39
process19 74 54
process40 76 36
process23 87 64
process27 100 73
process53 101 48
process30 108 78
process57 109 51
process0 110 110
process62 118 56
process63 120 57
process65 124 59
process68 130 62
process18 133 115
process36 134 97
process77 146 69
process44 162 117
process88 167 79
process90 171 81
process93 177 84
process28 191 163
process60 200 140
process33 207 173
process4 211 207
process71 216 145
process2 219 217
process73 220 147
process21 233 212
process83 237 154
process11 240 229
process1 247 246
process29 269 239
process32 276 244
process8 278 270
process34 280 246
process35 284 248
process41 298 256
process98 326 228
process55 331 276
process7 332 325
process37 346 309
process78 354 276
process24 372 348
process12 375 363
process51 383 332
process26 384 357
process52 386 334
process56 388 331
process15 390 374
process70 400 329
process72 401 329
process74 403 328
process39 405 365
process10 408 398
process82 413 331
process86 418 332
process45 419 374
process91 424 333
process92 426 333
process49 428 379
process25 430 405
process31 438 406
process61 439 378
process38 446 407
process75 447 372
process20 449 429
process84 456 372
process46 459 413
process94 463 369
process54 469 414
process16 472 456
process67 476 408
process81 482 400
process22 484 462
process85 485 399
process89 487 398
process95 490 395
process99 494 395
process17 499 482
process76 501 425
process79 502 423
process42 503 461
process50 510 460
process97 511 414
process66 515 449
process69 516 447
process43 518 475
process47 520 473
process48 521 473
process96 522 426
process58 523 464
process59 524 464
process64 525 461
process80 526 445
process87 527 440
526
