process3 6 3
process5 8 3
process9 11 2
process6 13 6
process14 16 1
process13 17 3
process0 20 20
process19 22 2
process23 25 2
process18 27 9
process27 29 2
process30 32 2
process28 34 6
process33 37 3
process36 39 2
process40 41 1
process29 44 14
process44 47 2
process35 50 14
process53 54 1
process34 55 21
process57 59 1
process32 60 28
process60 62 2
process62 63 1
process63 64 1
process65 66 1
process68 69 1
process55 70 15
process71 73 2
process73 75 2
process77 78 1
process21 79 58
process41 83 41
process83 85 2
process88 89 1
process78 90 12
process90 91 1
process93 94 1
process11 97 86
process98 101 3
process102 104 2
process104 106 2
process106 108 2
process72 111 39
process110 114 3
process116 117 1
process112 118 6
process109 122 12
process122 123 1
process101 127 26
process126 131 5
process127 135 7
process134 137 2
process140 141 1
process74 143 68
process143 146 2
process141 148 6
process146 150 3
process145 152 7
process154 155 1
process150 157 6
process157 159 1
process159 160 1
process160 163 2
process163 165 1
process152 166 13
process166 168 2
process144 172 27
process174 175 1
process169 176 6
process176 178 1
process177 180 2
process170 182 11
process178 184 6
process179 186 6
process182 188 6
process183 190 6
process190 191 1
process186 193 7
process184 196 11
process194 197 2
process197 200 3
process142 204 62
process203 206 3
process205 208 2
process204 211 7
process213 215 2
process216 217 1
process162 218 56
process158 222 63
process221 224 3
process225 227 2
process223 229 6
process222 233 11
process232 234 1
process234 236 2
process237 238 1
process236 240 3
process233 243 10
process242 245 3
process244 248 3
process239 252 13
process253 255 1
process207 257 50
process255 259 4
process257 261 3
process263 264 1
process252 266 13
process206 270 64
process270 271 1
process272 273 1
process269 276 7
process277 278 1
process279 281 2
process161 283 121
process281 287 6
process280 291 11
process290 295 5
process287 299 11
process286 303 17
process283 307 24
process298 311 13
process295 315 20
process167 319 151
process168 323 155
process196 327 131
process248 332 84
process267 337 70
process121 342 220
process70 347 276
process56 352 295
process135 357 222
process52 362 310
process107 367 260
process37 372 335
process82 377 295
process185 382 197
process175 387 212
process91 392 301
process189 397 208
process86 402 316
process92 407 314
process208 412 203
process164 417 252
process4 423 419
process235 429 193
process24 435 411
process129 441 312
process49 447 398
process26 453 426
process51 459 408
process61 465 404
process274 471 196
process264 477 213
process284 483 198
process289 489 199
process136 495 359
process139 501 361
process199 507 308
process293 513 220
process132 519 387
process75 525 450
process278 531 253
process147 537 390
process148 543 394
process165 549 384
process39 555 515
process171 561 389
process84 567 483
process94 573 479
process172 579 407
process45 585 540
process181 591 410
process8 597 589
process201 603 402
process200 609 409
process25 616 591
process54 623 568
process67 630 562
process230 637 406
process241 644 402
process259 651 392
process245 658 412
process220 665 444
process260 672 411
process268 679 410
process258 686 428
process214 693 479
process120 700 579
process31 707 675
process2 714 712
process85 721 635
process89 728 639
process153 735 582
process151 742 591
process12 749 737
process250 756 505
process38 763 724
process7 770 763
process195 777 582
process173 784 610
process15 791 775
process95 798 703
process46 805 759
process209 812 603
process211 819 607
process99 826 727
process81 833 751
process265 840 575
process111 848 737
process218 856 637
process130 864 734
process10 872 862
process113 880 767
process124 888 764
process224 896 671
process251 904 653
process219 912 692
process243 920 676
process271 928 656
process128 936 807
process299 944 644
process76 952 876
process231 960 729
process288 968 680
process296 976 680
process123 984 861
process138 992 854
process261 1000 739
process217 1008 791
process20 1016 996
process276 1024 748
process180 1032 851
process1 1040 1039
process188 1048 859
process100 1056 956
process187 1064 876
process97 1072 975
process294 1080 785
process79 1088 1009
process191 1096 905
process227 1105 877
process202 1114 912
process42 1123 1081
process212 1132 920
process16 1141 1125
process266 1150 883
process50 1159 1109
process125 1168 1042
process246 1177 930
process22 1186 1164
process96 1195 1099
process119 1204 1085
process66 1213 1147
process69 1222 1153
process247 1231 983
process262 1240 978
process149 1249 1100
process240 1258 1018
process228 1267 1038
process156 1276 1120
process285 1285 1000
process198 1294 1095
process291 1303 1012
process215 1312 1096
process131 1321 1189
process292 1330 1038
process17 1340 1323
process58 1350 1291
process115 1360 1245
process105 1370 1264
process108 1380 1272
process238 1390 1152
process87 1400 1313
process48 1410 1362
process275 1420 1144
process155 1430 1274
process256 1440 1184
process64 1450 1386
process254 1460 1206
process137 1470 1333
process226 1480 1253
process43 1490 1447
process117 1500 1382
process282 1510 1228
process80 1520 1439
process229 1530 1301
process47 1540 1493
process297 1550 1252
process103 1560 1456
process133 1570 1437
process249 1580 1330
process114 1590 1475
process118 1600 1481
process192 1610 1418
process59 1620 1560
process193 1630 1437
process273 1640 1366
process210 1650 1440
335
