process3 6 3
process5 8 3
process9 11 2
process6 13 6
process14 16 1
process13 17 3
process0 20 20
process19 22 2
process23 25 2
process18 27 9
process27 29 2
process30 32 2
process28 34 6
process33 37 3
process36 39 2
process40 41 1
process32 44 12
process44 47 2
process35 50 14
process53 54 1
process34 55 21
process57 59 1
process29 60 30
process60 62 2
process62 63 1
process63 64 1
process65 66 1
process68 69 1
process55 70 15
process71 73 2
process73 75 2
process77 78 1
process21 79 58
process41 83 41
process83 85 2
process88 89 1
process78 90 12
process90 91 1
process93 94 1
process52 97 45
process98 101 3
process102 104 2
process104 106 2
process106 108 2
process11 111 100
process110 114 3
process116 117 1
process112 118 6
process109 122 12
process122 123 1
process101 127 26
process126 131 5
process127 135 7
process134 137 2
process140 141 1
process72 143 71
process143 146 2
process141 148 6
process146 150 3
process145 152 7
process154 155 1
process150 157 6
process157 159 1
process159 160 1
process160 163 2
process163 165 1
process152 166 13
process166 168 2
process144 172 27
process174 175 1
process169 176 6
process176 178 1
process177 180 2
process170 182 11
process178 184 6
process179 186 6
process182 188 6
process183 190 6
process190 191 1
process186 193 7
process184 196 11
process194 197 2
process197 200 3
process142 204 62
process203 206 3
process205 208 2
process204 211 7
process213 215 2
process216 217 1
process162 218 56
process158 222 63
process221 224 3
process225 227 2
process223 229 6
process222 233 11
process232 234 1
process234 236 2
process237 238 1
process236 240 3
process233 243 10
process242 245 3
process244 248 3
process239 252 13
process253 255 1
process207 257 50
process255 259 4
process257 261 3
process263 264 1
process252 266 13
process206 270 64
process270 271 1
process272 273 1
process269 276 7
process277 278 1
process279 281 2
process161 283 121
process281 287 6
process280 291 11
process290 295 5
process287 299 11
process286 303 17
process283 307 24
process298 311 13
process295 315 20
process167 319 151
process168 323 155
process196 327 131
process248 332 84
process267 337 70
process121 342 220
process70 347 276
process74 352 277
process135 357 222
process56 362 305
process107 367 260
process82 372 290
process86 377 291
process185 382 197
process175 387 212
process37 392 355
process189 397 208
process91 402 311
process92 407 314
process208 412 203
process164 417 252
process4 423 419
process235 429 193
process24 435 411
process129 441 312
process49 447 398
process26 453 426
process51 459 408
process61 465 404
process274 471 196
process264 477 213
process284 483 198
process289 489 199
process136 495 359
process139 501 361
process199 507 308
process293 513 220
process132 519 387
process75 525 450
process278 531 253
process147 537 390
process148 543 394
process165 549 384
process39 555 515
process171 561 389
process84 567 483
process94 573 479
process172 579 407
process45 585 540
process181 591 410
process8 597 589
process201 603 402
process200 609 409
process25 616 591
process54 623 568
process67 630 562
process230 637 406
process241 644 402
process259 651 392
process245 658 412
process220 665 444
process260 672 411
process268 679 410
process258 686 428
process214 693 479
process120 700 579
process12 707 695
process2 714 712
process85 721 635
process151 728 577
process31 735 703
process153 742 589
process250 749 498
process81 756 674
process173 763 589
process89 770 681
process7 777 770
process195 784 589
process38 791 752
process95 798 703
process46 805 759
process209 812 603
process211 819 607
process99 826 727
process15 833 817
process265 840 575
process111 848 737
process218 856 637
process130 864 734
process10 872 862
process113 880 767
process124 888 764
process224 896 671
process251 904 653
process219 912 692
process243 920 676
process217 928 711
process20 936 916
process271 944 672
process299 952 652
process138 960 822
process76 968 892
process231 976 745
process288 984 696
process128 992 863
process296 1000 704
process294 1008 713
process261 1016 755
process276 1024 748
process180 1032 851
process123 1040 917
process79 1048 969
process191 1056 865
process97 1064 967
process187 1072 884
process100 1080 980
process188 1088 899
process1 1096 1095
process149 1105 956
process16 1114 1098
process202 1123 921
process22 1132 1110
process240 1141 901
process246 1150 903
process266 1159 892
process50 1168 1118
process125 1177 1051
process96 1186 1090
process228 1195 966
process119 1204 1085
process227 1213 985
process262 1222 960
process247 1231 983
process42 1240 1198
process66 1249 1183
process156 1258 1102
process285 1267 982
process291 1276 985
process198 1285 1086
process69 1294 1225
process212 1303 1091
process215 1312 1096
process131 1321 1189
process292 1330 1038
process118 1340 1221
process103 1350 1246
process17 1360 1343
process105 1370 1264
process117 1380 1262
process256 1390 1134
process155 1400 1244
process210 1410 1200
process108 1420 1312
process226 1430 1203
process58 1440 1381
process64 1450 1386
process254 1460 1206
process273 1470 1196
process59 1480 1420
process192 1490 1298
process115 1500 1385
process47 1510 1463
process80 1520 1439
process48 1530 1482
process238 1540 1302
process87 1550 1463
process114 1560 1445
process297 1570 1272
process133 1580 1447
process275 1590 1314
process43 1600 1557
process229 1610 1381
process249 1620 1370
process282 1630 1348
process137 1640 1503
process193 1650 1457
335
