process5 21 16
process3 25 22
process14 29 14
process9 37 28
process6 50 43
process13 53 39
process19 74 54
process40 76 36
process23 87 64
process27 100 73
process53 101 48
process30 108 78
process57 109 51
process0 110 110
process62 118 56
process63 120 57
process65 124 59
process4 128 124
process68 131 63
process18 134 116
process36 135 98
process77 147 70
process44 163 118
process88 168 80
process90 172 82
process93 178 85
process28 195 167
process60 215 155
process116 219 103
process122 229 107
process33 232 198
process71 254 183
process140 259 119
process2 260 258
process73 261 188
process154 286 132
process21 288 267
process157 293 135
process159 296 137
process83 297 214
process11 303 292
process163 304 140
process1 318 317
process174 323 149
process176 328 151
process190 354 164
process102 362 260
process194 363 168
process104 369 265
process106 378 272
process29 380 350
process216 404 188
process32 414 382
process8 425 417
process232 434 201
process34 438 404
process237 443 206
process35 461 425
process134 467 332
process253 476 222
process263 491 228
process143 497 353
process145 504 359
process270 505 235
process272 509 237
process146 510 363
process277 519 242
process41 530 488
process160 558 397
process166 567 401
process177 585 407
process178 586 408
process179 588 408
process182 593 411
process183 596 412
process186 601 415
process98 605 507
process55 623 568
process7 625 618
process203 629 426
process205 633 427
process110 638 527
process112 644 532
process213 648 435
process221 661 440
process225 668 443
process234 682 448
process236 686 449
process242 696 454
process255 718 463
process37 721 684
process257 723 465
process141 730 588
process78 753 675
process279 756 477
process168 801 633
process169 803 633
process170 805 634
process24 812 788
process12 815 803
process184 823 638
process26 831 804
process52 834 782
process101 838 737
process196 840 644
process197 842 645
process204 850 646
process56 852 795
process109 856 746
process15 864 848
process223 879 656
process121 887 765
process126 899 773
process239 903 664
process127 904 776
process244 913 668
process135 922 787
process70 926 855
process72 932 860
process142 939 797
process74 943 868
process144 947 802
process39 950 910
process10 962 952
process150 963 812
process152 970 817
process82 986 904
process158 991 832
process161 998 836
process162 999 837
process86 1003 917
process45 1004 959
process167 1006 838
process91 1013 922
process92 1016 923
process49 1020 971
process25 1022 997
process51 1027 976
process107 1045 938
process206 1046 840
process207 1048 841
process31 1063 1031
process61 1066 1005
process222 1068 846
process233 1083 850
process136 1108 972
process252 1109 856
process38 1121 1082
process75 1125 1050
process269 1127 858
process20 1132 1112
process280 1139 859
process281 1141 860
process283 1144 861
process286 1149 863
process287 1151 863
process290 1155 865
process81 1158 1076
process295 1163 868
process298 1166 868
process84 1169 1085
process164 1171 1006
process165 1172 1007
process46 1174 1128
process175 1180 1005
process94 1182 1088
process185 1187 1002
process189 1192 1003
process54 1199 1144
process208 1208 999
process16 1229 1213
process235 1241 1005
process129 1247 1118
process67 1250 1182
process132 1253 1121
process248 1258 1010
process139 1268 1128
process267 1276 1009
process147 1280 1133
process148 1283 1134
process22 1307 1285
process85 1309 1223
process89 1311 1222
process171 1312 1140
process172 1313 1141
process181 1318 1137
process95 1319 1224
process99 1325 1226
process199 1333 1134
process200 1334 1134
process201 1335 1134
process209 1339 1130
process214 1346 1132
process120 1359 1238
process123 1367 1244
process124 1368 1244
process17 1372 1355
process138 1389 1251
process258 1391 1133
process259 1392 1133
process264 1396 1132
process268 1399 1130
process76 1400 1324
process274 1403 1128
process278 1407 1129
process151 1408 1257
process79 1409 1330
process153 1411 1258
process284 1412 1127
process42 1414 1372
process289 1418 1128
process293 1422 1129
process173 1430 1256
process50 1434 1384
process97 1435 1338
process100 1440 1340
process195 1442 1247
process111 1448 1337
process211 1451 1239
process113 1453 1340
process220 1461 1240
process230 1471 1240
process66 1474 1408
process128 1477 1348
process241 1478 1236
process130 1479 1349
process243 1480 1236
process245 1482 1236
process69 1486 1417
process250 1488 1237
process260 1493 1232
process265 1496 1231
process80 1505 1424
process288 1506 1218
process291 1509 1218
process43 1512 1469
process87 1517 1430
process47 1518 1471
process48 1519 1471
process180 1520 1339
process96 1521 1425
process187 1522 1334
process188 1523 1334
process191 1524 1333
process193 1526 1333
process58 1533 1474
process212 1534 1322
process59 1535 1475
process215 1536 1320
process217 1538 1321
process218 1540 1321
process219 1541 1321
process117 1542 1424
process118 1543 1424
process119 1544 1425
process224 1545 1320
process227 1547 1319
process228 1548 1319
process64 1550 1486
process231 1551 1320
process125 1552 1426
process240 1554 1314
process131 1556 1424
process251 1561 1310
process261 1565 1304
process266 1567 1300
process271 1568 1296
process276 1571 1295
process149 1572 1423
process155 1575 1419
process156 1576 1420
process294 1578 1283
process296 1579 1283
process299 1581 1281
process103 1583 1479
process198 1584 1385
process105 1585 1479
process202 1586 1384
process108 1587 1479
process210 1588 1378
process114 1589 1474
process115 1590 1475
process229 1592 1363
process246 1594 1347
process133 1595 1462
process247 1596 1348
process137 1598 1461
process262 1601 1339
process285 1605 1320
process292 1606 1314
process192 1608 1416
process226 1609 1382
process238 1610 1372
process249 1611 1361
process254 1612 1358
process256 1613 1357
process273 1614 1340
process275 1615 1339
process282 1616 1334
process297 1617 1319
1612
