process5 21 16
process3 25 22
process14 29 14
process9 37 28
process6 50 43
process13 53 39
process19 74 54
process40 76 36
process23 87 64
process27 100 73
process53 101 48
process30 108 78
process57 109 51
process0 110 110
process62 118 56
process63 120 57
process65 124 59
process68 130 62
process18 133 115
process36 134 97
process77 146 69
process44 162 117
process88 167 79
process90 171 81
process93 177 84
process28 194 166
process60 214 154
process116 218 102
process122 228 106
process33 231 197
process4 239 235
process71 253 182
process2 258 256
process140 260 120
process73 261 188
process154 287 133
process21 288 267
process157 294 136
process83 295 212
process159 297 138
process11 301 290
process163 305 141
process1 317 316
process174 324 150
process176 329 152
process190 355 165
process102 362 260
process194 363 168
process104 369 265
process106 377 271
process29 379 349
process216 405 189
process32 412 380
process8 424 416
process232 435 202
process34 437 403
process237 444 207
process35 457 421
process134 467 332
process253 475 221
process263 491 228
process143 500 356
process270 505 235
process145 506 361
process272 509 237
process146 510 363
process277 519 242
process41 530 488
process160 560 399
process166 568 402
process177 585 407
process178 586 408
process179 589 409
process182 594 412
process183 597 413
process186 602 416
process98 604 506
process26 606 579
process55 621 566
process7 624 617
process203 629 426
process56 632 575
process205 634 428
process110 638 527
process112 644 532
process213 649 436
process221 661 440
process225 669 444
process234 682 448
process236 687 450
process127 690 562
process242 697 455
process255 719 464
process37 720 683
process257 724 466
process141 732 590
process78 750 672
process279 757 478
process86 796 710
process169 805 635
process170 806 635
process24 812 788
process12 816 804
process184 825 640
process52 833 781
process101 837 736
process197 843 646
process204 851 647
process109 854 744
process15 861 845
process223 879 656
process126 896 770
process244 909 664
process70 922 851
process72 929 857
process142 938 796
process74 940 865
process75 941 866
process39 944 904
process144 947 802
process10 959 949
process150 962 811
process152 968 815
process286 972 686
process82 984 902
process158 990 831
process161 996 834
process162 997 835
process45 1001 956
process167 1003 835
process168 1004 836
process91 1010 919
process92 1014 921
process49 1016 967
process25 1020 995
process51 1025 974
process99 1029 930
process196 1036 840
process107 1044 937
process206 1046 840
process207 1047 840
process31 1062 1030
process61 1064 1003
process222 1068 846
process121 1075 953
process233 1084 851
process239 1090 851
process135 1107 972
process252 1111 858
process139 1118 978
process38 1122 1083
process269 1128 859
process20 1133 1113
process280 1141 861
process281 1142 861
process283 1145 862
process287 1151 863
process290 1155 865
process295 1163 868
process298 1166 868
process84 1168 1084
process85 1170 1084
process164 1172 1007
process46 1175 1129
process175 1181 1006
process94 1183 1089
process95 1186 1091
process185 1190 1005
process189 1194 1005
process54 1200 1145
process208 1210 1001
process16 1229 1213
process129 1248 1119
process67 1250 1182
process132 1255 1123
process248 1259 1011
process136 1264 1128
process267 1277 1010
process147 1281 1134
process148 1286 1137
process81 1298 1216
process293 1304 1011
process22 1310 1288
process165 1312 1147
process89 1314 1225
process171 1315 1143
process172 1316 1144
process181 1321 1140
process199 1334 1135
process200 1335 1135
process201 1337 1136
process120 1360 1239
process235 1371 1135
process17 1373 1356
process245 1381 1135
process259 1395 1136
process264 1399 1135
process76 1403 1327
process274 1406 1131
process278 1410 1132
process79 1411 1332
process151 1412 1261
process42 1414 1372
process284 1415 1130
process153 1417 1264
process289 1420 1130
process173 1432 1258
process50 1436 1386
process97 1437 1340
process100 1441 1341
process195 1444 1249
process111 1450 1339
process209 1451 1242
process58 1452 1393
process211 1454 1242
process113 1456 1343
process214 1458 1244
process217 1462 1245
process219 1464 1244
process220 1465 1244
process123 1475 1352
process230 1476 1245
process124 1478 1354
process66 1480 1414
process128 1483 1354
process241 1484 1242
process130 1485 1355
process69 1489 1420
process250 1493 1242
process138 1498 1360
process258 1499 1241
process260 1500 1239
process265 1503 1238
process268 1505 1236
process43 1519 1476
process294 1520 1225
process47 1525 1478
process48 1526 1478
process180 1527 1346
process96 1528 1432
process187 1529 1341
process188 1530 1341
process191 1531 1340
process59 1541 1481
process215 1543 1327
process218 1546 1327
process119 1549 1430
process224 1550 1325
process64 1555 1491
process231 1556 1325
process125 1557 1431
process243 1560 1316
process131 1561 1429
process251 1566 1315
process261 1570 1309
process271 1573 1301
process276 1576 1300
process149 1577 1428
process80 1580 1499
process288 1581 1293
process156 1584 1428
process296 1586 1290
process299 1588 1288
process87 1589 1502
process103 1592 1488
process198 1593 1394
process105 1594 1488
process202 1595 1393
process108 1596 1488
process212 1598 1386
process114 1599 1484
process115 1600 1485
process117 1601 1483
process118 1602 1483
process227 1604 1376
process228 1605 1376
process238 1607 1369
process240 1609 1369
process246 1610 1363
process247 1611 1363
process133 1612 1479
process254 1614 1360
process137 1616 1479
process262 1618 1356
process266 1619 1352
process273 1620 1346
process275 1621 1345
process282 1622 1340
process285 1623 1338
process155 1624 1468
process291 1625 1334
process292 1626 1334
process192 1628 1436
process193 1629 1436
process210 1630 1420
process226 1631 1404
process229 1632 1403
process249 1633 1383
process256 1634 1378
process297 1635 1337
1625
