process0 7 7
process1 15 14
process2 22 20
process3 25 22
process4 31 27
process5 33 28
process6 36 29
process7 43 36
process8 49 41
process9 51 42
process10 59 49
process11 64 53
process12 71 59
process13 73 59
process14 74 59
process15 81 65
process16 90 74
process17 100 83
process18 103 85
process19 105 85
process20 113 93
process21 117 96
process22 126 104
process23 128 105
process24 134 110
process25 141 116
process26 147 120
process27 149 122
process28 152 124
process29 156 126
process30 158 128
process31 165 133
process32 169 137
process33 172 138
process34 176 142
process35 180 144
process36 182 145
process37 187 150
process38 194 155
process39 200 160
process40 201 161
process41 205 163
process42 214 172
process43 224 181
process44 226 181
process45 232 187
process46 239 193
process47 249 202
process48 259 211
process49 265 216
process50 274 224
process51 280 229
process52 285 233
process53 286 233
process54 293 238
process55 297 242
process56 302 245
process57 303 245
process58 313 254
process59 323 263
process60 325 265
process61 331 270
process62 332 270
process63 333 270
process64 343 279
process65 344 279
process66 353 287
process67 360 292
process68 361 293
process69 370 301
process70 375 304
process71 377 306
process72 382 310
process73 384 311
process74 389 314
process75 395 320
process76 403 327
process77 404 327
process78 408 330
process79 416 337
process80 426 345
process81 433 351
process82 438 356
process83 440 357
process84 446 362
process85 453 367
process86 458 372
process87 468 381
process88 469 381
process89 476 387
process90 477 387
process91 482 391
process92 487 394
process93 488 395
process94 494 400
process95 501 406
process96 510 414
process97 518 421
process98 521 423
process99 528 429
99
